{
  "version": 3,
  "cmakeMinimumRequired": {
    "major": 3,
    "minor": 22,
    "patch": 1
  },
  "configurePresets": [
    {
      "name": "default",
      "hidden": true,
      "inherits": "default",
      "displayName": "Webassembly",
      "description": "Default build for Webassembly",
      "cacheVariables": {
        "DOWNLOAD_EMSCRIPTEN": "OFF",
        "EMSCRIPTEN_VERSION": "3.1.36",
        "EMSCRIPTEN_ROOT_PATH": "build/${presetName}/emsdk/upstream/emscripten"
      },
      "binaryDir": "build/${presetName}",
      "toolchainFile": "build/${presetName}/emsdk/upstream/emscripten/cmake/Modules/Platform/Emscripten.cmake"
    },
    {
      "name": "webassembly-release",
      "inherits": "default",
      "cacheVariables": {
        "CMAKE_BUILD_TYPE": "Release"
      }
    },
    {
      "name": "webassembly-debug",
      "inherits": "default",
      "displayName": "Webassembly Debug",
      "description": "Debug build for Webassembly",
      "cacheVariables": {
        "CMAKE_BUILD_TYPE": "Debug"
      }
    }
  ],
  "buildPresets": [
    {
      "name": "webassembly-release",
      "jobs": 16,
      "configurePreset": "webassembly"
    },
    {
      "name": "webassembly-debug",
      "jobs": 16,
      "configurePreset": "webassembly-debug"
    }
  ],
  "testPresets": []
}
